…
    ## [1] "./data/trashwheel.xlsx"

``` r
trashwheel <- 
  read_excel("data/trashwheel.xlsx", sheet = "Mr. Trash Wheel", range = "A2:N408") %>% 
  janitor::clean_names(dat = .) %>%
  rename(.data = ., volume = volume_cubic_yards, styrofoam = polystyrene, weight = weight_tons) %>%
  drop_na(dumpster)
  mutate(
    trashwheel, sports_balls = as.integer(sports_balls)
    )
```

    ## # A tibble: 344 x 14
    ##    dumpster month  year date                weight volume plastic_bottles
    ##       <dbl> <chr> <dbl> <dttm>               <dbl>  <dbl>           <dbl>
    ##  1        1 May    2014 2014-05-16 00:00:00   4.31     18            1450
    ##  2        2 May    2014 2014-05-16 00:00:00   2.74     13            1120
    ##  3        3 May    2014 2014-05-16 00:00:00   3.45     15            2450
    ##  4        4 May    2014 2014-05-17 00:00:00   3.1      15            2380
    ##  5        5 May    2014 2014-05-17 00:00:00   4.06     18             980
    ##  6        6 May    2014 2014-05-20 00:00:00   2.71     13            1430
    ##  7        7 May    2014 2014-05-21 00:00:00   1.91      8             910
    ##  8        8 May    2014 2014-05-28 00:00:00   3.7      16            3580
    ##  9        9 June   2014 2014-06-05 00:00:00   2.52     14            2400
    ## 10       10 June   2014 2014-06-11 00:00:00   3.76     18            1340
    ## # … with 334 more rows, and 7 more variables: styrofoam <dbl>,
    ## #   cigarette_butts <dbl>, glass_bottles <dbl>, grocery_bags <dbl>,
    ## #   chip_bags <dbl>, sports_balls <int>, homes_powered <dbl>
…
``` r
snp = read_csv("data/538data/snp.csv")
```

    ## Parsed with column specification:
    ## cols(
    ##   date = col_character(),
    ##   close = col_double()
    ## )

``` r
snp
```

    ## # A tibble: 787 x 2
    ##    date      close
    ##    <chr>     <dbl>
    ##  1 7/1/2015  2080.
    ##  2 6/1/2015  2063.
    ##  3 5/1/2015  2107.
    ##  4 4/1/2015  2086.
    ##  5 3/2/2015  2068.
    ##  6 2/2/2015  2104.
    ##  7 1/2/2015  1995.
    ##  8 12/1/2014 2059.
    ##  9 11/3/2014 2068.
    ## 10 10/1/2014 2018.
    ## # … with 777 more rows
…
    ## Parsed with column specification:
    ## cols(
    ##   `Year of Birth` = col_double(),
    ##   Gender = col_character(),
    ##   Ethnicity = col_character(),
    ##   `Child's First Name` = col_character(),
    ##   Count = col_double(),
    ##   Rank = col_double()
    ## )

``` r
babynames
```

    ## # A tibble: 19,418 x 6
    ##    `Year of Birth` Gender Ethnicity          `Child's First Na… Count  Rank
    ##              <dbl> <chr>  <chr>              <chr>              <dbl> <dbl>
    ##  1            2016 FEMALE ASIAN AND PACIFIC… Olivia               172     1
    ##  2            2016 FEMALE ASIAN AND PACIFIC… Chloe                112     2
    ##  3            2016 FEMALE ASIAN AND PACIFIC… Sophia               104     3
    ##  4            2016 FEMALE ASIAN AND PACIFIC… Emily                 99     4
    ##  5            2016 FEMALE ASIAN AND PACIFIC… Emma                  99     4
    ##  6            2016 FEMALE ASIAN AND PACIFIC… Mia                   79     5
    ##  7            2016 FEMALE ASIAN AND PACIFIC… Charlotte             59     6
    ##  8            2016 FEMALE ASIAN AND PACIFIC… Sarah                 57     7
    ##  9            2016 FEMALE ASIAN AND PACIFIC… Isabella              56     8
    ## 10            2016 FEMALE ASIAN AND PACIFIC… Hannah                56     8
    ## # … with 19,408 more rows
